NRI 7350 - Lab 3
…
- Or click on the name in the Environment pane

---
# Side Note: Where are all my data?

```r
penguins
```

```
## # A tibble: 344 × 8
##    species island    bill_length_mm bill_depth_mm flipper_length_mm body_mass_g
##    <fct>   <fct>              <dbl>         <dbl>             <int>       <int>
##  1 Adelie  Torgersen           39.1          18.7               181        3750
##  2 Adelie  Torgersen           39.5          17.4               186        3800
##  3 Adelie  Torgersen           40.3          18                 195        3250
##  4 Adelie  Torgersen           NA            NA                  NA          NA
##  5 Adelie  Torgersen           36.7          19.3               193        3450
##  6 Adelie  Torgersen           39.3          20.6               190        3650
##  7 Adelie  Torgersen           38.9          17.8               181        3625
##  8 Adelie  Torgersen           39.2          19.6               195        4675
##  9 Adelie  Torgersen           34.1          18.1               193        3475
## 10 Adelie  Torgersen           42            20.2               190        4250
## # … with 334 more rows, and 2 more variables: sex <fct>, year <int>
```
…
### `pivot_longer()` transposes data
- from `tidyr` package .small[(part of `tidyverse`)]

```r
penguins_long <- pivot_longer(penguins, 
                              cols = c(bill_length_mm, bill_depth_mm, flipper_length_mm, body_mass_g),
                              names_to = "measurement", values_to = "values")

penguins_long
```

```
## # A tibble: 1,376 × 6
##    species island    sex     year measurement       values
##    <fct>   <fct>     <fct>  <int> <chr>              <dbl>
##  1 Adelie  Torgersen male    2007 bill_length_mm      39.1
##  2 Adelie  Torgersen male    2007 bill_depth_mm       18.7
##  3 Adelie  Torgersen male    2007 flipper_length_mm  181  
##  4 Adelie  Torgersen male    2007 body_mass_g       3750  
##  5 Adelie  Torgersen female  2007 bill_length_mm      39.5
##  6 Adelie  Torgersen female  2007 bill_depth_mm       17.4
##  7 Adelie  Torgersen female  2007 flipper_length_mm  186  
##  8 Adelie  Torgersen female  2007 body_mass_g       3800  
##  9 Adelie  Torgersen female  2007 bill_length_mm      40.3
## 10 Adelie  Torgersen female  2007 bill_depth_mm       18  
## # … with 1,366 more rows
```
…
