NRI 7350 - Lab 6
…
### Get the data

```r
p <- read_csv("https://stats.idre.ucla.edu/stat/data/poisson_sim.csv")
p <- mutate(p, program = factor(prog, levels = 1:3,
                                labels = c("General", "Academic", "Vocational")))
p
```

.small[

```
## # A tibble: 200 × 5
##       id num_awards  prog  math program   
##    <dbl>      <dbl> <dbl> <dbl> <fct>     
##  1    45          0     3    41 Vocational
##  2   108          0     1    41 General   
##  3    15          0     3    44 Vocational
##  4    67          0     3    42 Vocational
##  5   153          0     3    40 Vocational
##  6    51          0     1    42 General   
##  7   164          0     3    46 Vocational
##  8   133          0     3    40 Vocational
##  9     2          0     3    33 Vocational
## 10    53          0     3    46 Vocational
## # … with 190 more rows
```
…
### Get the data

- Mountain chickadees atypical songs by urbanization
- Negative `urbanization` more rural
- Positive `urbanization` more urban 
- `atypical_c` atypical singer (1) or 'normal' singer (0)

```r
atypical <- read_csv("https://steffilazerte.ca/NRI_7350/data/atypical.csv")
atypical
```

```
## # A tibble: 78 × 2
##    atypical urbanization
##       <dbl>        <dbl>
##  1        1        0.540
##  2        0        0.582
##  3        0       -0.950
##  4        0       -0.950
##  5        0        0.513
##  6        0        1.69 
##  7        0        1.51 
##  8        0        1.72 
##  9        0        1.28 
## 10        0        1.43 
## # … with 68 more rows
```
…
